{
    "KPlugin": {
        "Category": "Appearance",
        "Description": "Helper effect for screenshot tools",
        "Description[az]": "Ekranın şəklini çəkən vasitə üçün köməkçi effekt",
        "Description[ca]": "Efecte auxiliar per a les eines de captura de pantalla",
        "Description[cs]": "Pomocný efekt pro nástroje snímku obrazovky",
        "Description[es]": "Efecto auxiliar para las herramientas de captura de pantalla",
        "Description[fr]": "Effet d'assistance pour les outils de copie d'écran",
        "Description[ia]": "Effecto adjutante pro instrumentos de instantanee de schermo",
        "Description[it]": "Effetto di assistenza per strumenti di schermate",
        "Description[nl]": "Effect van hulp voor hulpmiddelen bij schermafdruk",
        "Description[pl]": "Efekt pomocniczy dla zrzutów ekranu",
        "Description[sl]": "Učinki pomočnika za orodja posnetka zaslona",
        "Description[sv]": "Hjälpeffekt för skärmbildsverktyg",
        "Description[uk]": "Допоміжний ефект для створення знімків екрана",
        "Description[vi]": "Hiệu ứng trợ giúp cho các công cụ chụp ảnh màn hình",
        "Description[x-test]": "xxHelper effect for screenshot toolsxx",
        "Description[zh_CN]": "屏幕截图工具的辅助效果",
        "EnabledByDefault": true,
        "Id": "screenshot",
        "License": "GPL",
        "Name": "Screenshot",
        "Name[az]": "Ekran şəklini çəkmək",
        "Name[ca]": "Captura de pantalla",
        "Name[cs]": "Snímek obrazovky",
        "Name[es]": "Captura de pantalla",
        "Name[fr]": "Copie d'écran",
        "Name[ia]": "Captura de schermo",
        "Name[it]": "Schermata",
        "Name[nl]": "Schermafdruk",
        "Name[pl]": "Zrzut ekranu",
        "Name[sl]": "Posnetek zaslona",
        "Name[sv]": "Skärmbild",
        "Name[uk]": "Знімок вікна",
        "Name[vi]": "Ảnh chụp màn hình",
        "Name[x-test]": "xxScreenshotxx",
        "Name[zh_CN]": "屏幕截图",
        "ServiceTypes": [
            "KWin/Effect"
        ]
    },
    "org.kde.kwin.effect": {
        "internal": true
    }
}
